-- Merging decision tree log ---
manifest
ADDED from /root/AndroidStudioProjects/KhozeeRadio/myapplication/src/main/AndroidManifest.xml:1:1-11:12
	package
		ADDED from /root/AndroidStudioProjects/KhozeeRadio/myapplication/src/main/AndroidManifest.xml:3:5-40
		INJECTED from /root/AndroidStudioProjects/KhozeeRadio/myapplication/src/main/AndroidManifest.xml
		INJECTED from /root/AndroidStudioProjects/KhozeeRadio/myapplication/src/main/AndroidManifest.xml
	android:versionName
		INJECTED from /root/AndroidStudioProjects/KhozeeRadio/myapplication/src/main/AndroidManifest.xml
		INJECTED from /root/AndroidStudioProjects/KhozeeRadio/myapplication/src/main/AndroidManifest.xml
	xmlns:android
		ADDED from /root/AndroidStudioProjects/KhozeeRadio/myapplication/src/main/AndroidManifest.xml:1:11-69
	android:versionCode
		INJECTED from /root/AndroidStudioProjects/KhozeeRadio/myapplication/src/main/AndroidManifest.xml
		INJECTED from /root/AndroidStudioProjects/KhozeeRadio/myapplication/src/main/AndroidManifest.xml
application
ADDED from /root/AndroidStudioProjects/KhozeeRadio/myapplication/src/main/AndroidManifest.xml:5:5-9:19
MERGED from [com.android.support:appcompat-v7:26.0.0-alpha1] /root/.android/build-cache/9789c6968982f0b66f2e554863cc37f243b1167d/output/AndroidManifest.xml:29:5-20
MERGED from [com.android.support:support-v4:26.0.0-alpha1] /root/.android/build-cache/1a25878179c5af2b648bab59fd106291f8335bb6/output/AndroidManifest.xml:29:5-20
MERGED from [com.android.support:support-media-compat:26.0.0-alpha1] /root/.android/build-cache/f7939695a48b1bb80c2fd46dddfa378bfec6a9f6/output/AndroidManifest.xml:29:5-20
MERGED from [com.android.support:support-fragment:26.0.0-alpha1] /root/.android/build-cache/d20f2d9b7b1b6d0df19350b3e8f69d9f66f063fb/output/AndroidManifest.xml:29:5-20
MERGED from [com.android.support:support-core-ui:26.0.0-alpha1] /root/.android/build-cache/ecf8dee4d4fa113a2ed262d5640c30400947e96c/output/AndroidManifest.xml:29:5-20
MERGED from [com.android.support:support-core-utils:26.0.0-alpha1] /root/.android/build-cache/39f16972819178e97d7b170743c758ef2976b3b2/output/AndroidManifest.xml:29:5-20
MERGED from [com.android.support:animated-vector-drawable:26.0.0-alpha1] /root/.android/build-cache/d5e30d6b8f3c9019184083d5d030fe638a0a7627/output/AndroidManifest.xml:26:5-20
MERGED from [com.android.support:support-vector-drawable:26.0.0-alpha1] /root/.android/build-cache/4bd107443cc452e457e8204d235022533f2ebfc3/output/AndroidManifest.xml:26:5-20
MERGED from [com.android.support:support-compat:26.0.0-alpha1] /root/.android/build-cache/2496eb6abaf58c6f93a553795f372ff92a1a7ebe/output/AndroidManifest.xml:29:5-20
	android:label
		ADDED from /root/AndroidStudioProjects/KhozeeRadio/myapplication/src/main/AndroidManifest.xml:6:9-41
	android:supportsRtl
		ADDED from /root/AndroidStudioProjects/KhozeeRadio/myapplication/src/main/AndroidManifest.xml:7:9-35
	android:roundIcon
		ADDED from /root/AndroidStudioProjects/KhozeeRadio/myapplication/src/main/AndroidManifest.xml:6:42-87
	android:allowBackup
		ADDED from /root/AndroidStudioProjects/KhozeeRadio/myapplication/src/main/AndroidManifest.xml:5:18-44
	android:icon
		ADDED from /root/AndroidStudioProjects/KhozeeRadio/myapplication/src/main/AndroidManifest.xml:5:45-79
	android:theme
		ADDED from /root/AndroidStudioProjects/KhozeeRadio/myapplication/src/main/AndroidManifest.xml:7:36-67
uses-sdk
INJECTED from /root/AndroidStudioProjects/KhozeeRadio/myapplication/src/main/AndroidManifest.xml reason: use-sdk injection requested
MERGED from [com.android.support:appcompat-v7:26.0.0-alpha1] /root/.android/build-cache/9789c6968982f0b66f2e554863cc37f243b1167d/output/AndroidManifest.xml:21:5-23:78
MERGED from [com.android.support:support-v4:26.0.0-alpha1] /root/.android/build-cache/1a25878179c5af2b648bab59fd106291f8335bb6/output/AndroidManifest.xml:21:5-23:54
MERGED from [com.android.support:support-media-compat:26.0.0-alpha1] /root/.android/build-cache/f7939695a48b1bb80c2fd46dddfa378bfec6a9f6/output/AndroidManifest.xml:21:5-23:63
MERGED from [com.android.support:support-fragment:26.0.0-alpha1] /root/.android/build-cache/d20f2d9b7b1b6d0df19350b3e8f69d9f66f063fb/output/AndroidManifest.xml:21:5-23:60
MERGED from [com.android.support:support-core-ui:26.0.0-alpha1] /root/.android/build-cache/ecf8dee4d4fa113a2ed262d5640c30400947e96c/output/AndroidManifest.xml:21:5-23:58
MERGED from [com.android.support:support-core-utils:26.0.0-alpha1] /root/.android/build-cache/39f16972819178e97d7b170743c758ef2976b3b2/output/AndroidManifest.xml:21:5-23:61
MERGED from [com.android.support:animated-vector-drawable:26.0.0-alpha1] /root/.android/build-cache/d5e30d6b8f3c9019184083d5d030fe638a0a7627/output/AndroidManifest.xml:20:5-44
MERGED from [com.android.support:support-vector-drawable:26.0.0-alpha1] /root/.android/build-cache/4bd107443cc452e457e8204d235022533f2ebfc3/output/AndroidManifest.xml:20:5-44
MERGED from [com.android.support:support-compat:26.0.0-alpha1] /root/.android/build-cache/2496eb6abaf58c6f93a553795f372ff92a1a7ebe/output/AndroidManifest.xml:21:5-23:58
	tools:overrideLibrary
		ADDED from [com.android.support:appcompat-v7:26.0.0-alpha1] /root/.android/build-cache/9789c6968982f0b66f2e554863cc37f243b1167d/output/AndroidManifest.xml:23:9-75
	android:targetSdkVersion
		INJECTED from /root/AndroidStudioProjects/KhozeeRadio/myapplication/src/main/AndroidManifest.xml
		INJECTED from /root/AndroidStudioProjects/KhozeeRadio/myapplication/src/main/AndroidManifest.xml
	android:minSdkVersion
		INJECTED from /root/AndroidStudioProjects/KhozeeRadio/myapplication/src/main/AndroidManifest.xml
		INJECTED from /root/AndroidStudioProjects/KhozeeRadio/myapplication/src/main/AndroidManifest.xml
meta-data#android.support.VERSION
ADDED from [com.android.support:appcompat-v7:26.0.0-alpha1] /root/.android/build-cache/9789c6968982f0b66f2e554863cc37f243b1167d/output/AndroidManifest.xml:25:5-27:41
MERGED from [com.android.support:support-v4:26.0.0-alpha1] /root/.android/build-cache/1a25878179c5af2b648bab59fd106291f8335bb6/output/AndroidManifest.xml:25:5-27:41
MERGED from [com.android.support:support-media-compat:26.0.0-alpha1] /root/.android/build-cache/f7939695a48b1bb80c2fd46dddfa378bfec6a9f6/output/AndroidManifest.xml:25:5-27:41
MERGED from [com.android.support:support-fragment:26.0.0-alpha1] /root/.android/build-cache/d20f2d9b7b1b6d0df19350b3e8f69d9f66f063fb/output/AndroidManifest.xml:25:5-27:41
MERGED from [com.android.support:support-core-ui:26.0.0-alpha1] /root/.android/build-cache/ecf8dee4d4fa113a2ed262d5640c30400947e96c/output/AndroidManifest.xml:25:5-27:41
MERGED from [com.android.support:support-core-utils:26.0.0-alpha1] /root/.android/build-cache/39f16972819178e97d7b170743c758ef2976b3b2/output/AndroidManifest.xml:25:5-27:41
MERGED from [com.android.support:animated-vector-drawable:26.0.0-alpha1] /root/.android/build-cache/d5e30d6b8f3c9019184083d5d030fe638a0a7627/output/AndroidManifest.xml:22:5-24:41
MERGED from [com.android.support:support-vector-drawable:26.0.0-alpha1] /root/.android/build-cache/4bd107443cc452e457e8204d235022533f2ebfc3/output/AndroidManifest.xml:22:5-24:41
MERGED from [com.android.support:support-compat:26.0.0-alpha1] /root/.android/build-cache/2496eb6abaf58c6f93a553795f372ff92a1a7ebe/output/AndroidManifest.xml:25:5-27:41
	android:value
		ADDED from [com.android.support:appcompat-v7:26.0.0-alpha1] /root/.android/build-cache/9789c6968982f0b66f2e554863cc37f243b1167d/output/AndroidManifest.xml:27:9-38
	android:name
		ADDED from [com.android.support:appcompat-v7:26.0.0-alpha1] /root/.android/build-cache/9789c6968982f0b66f2e554863cc37f243b1167d/output/AndroidManifest.xml:26:9-47
